column name,desc,data type
bankcustomers_id,customer id,int (11) pk not null
customerid,customer id genterated by sopra,varchar (20) not null
title,name title eg:- miss or mrs,varchar(5)  null
firstname,user first name,varchar(100)  null
lastname,user lastname,varchar(100)  null
dob,user dob,date null
mobileno,user mobile no.,varchar(20)  null
emailid,user email id,varchar(200)  null
housenumber,user house no,int(11) null
address1,user address 1,varchar(45)  null
address2,user address 2,varchar(45)  null
address3,user address 3,varchar(45)  null
address4,user address 4,varchar(45)  null
address5,user address 5,varchar(45)  null
postcode,user postcode ,varchar(45)  null
