{
    "extension": "linecount",
    "version": "0.1.7",
    "workspace": "/Users/santosh/Development/rpa-server",
    "linecount": [
        {
            "version": "0.1.7",
            "counttime": "2019-02-13 11:04:03",
            "filesum": 121,
            "codesum": 28287,
            "commentsum": 1794,
            "blanksum": 4047,
            "filelist": [
                {
                    "blank": 0,
                    "code": 4,
                    "comment": 0,
                    "filename": ".gitignore"
                },
                {
                    "filename": "action-paths/bipin.zip",
                    "isbinaryfile": true,
                    "blank": 0,
                    "code": 0,
                    "comment": 0
                },
                {
                    "filename": "action-paths/bipin/explorer.PNG",
                    "isbinaryfile": true,
                    "blank": 0,
                    "code": 0,
                    "comment": 0
                },
                {
                    "blank": 3,
                    "code": 41,
                    "comment": 0,
                    "filename": "action-paths/bipin/index.js"
                },
                {
                    "filename": "action-paths/BipinShukla/explorer.PNG",
                    "isbinaryfile": true,
                    "blank": 0,
                    "code": 0,
                    "comment": 0
                },
                {
                    "blank": 3,
                    "code": 41,
                    "comment": 0,
                    "filename": "action-paths/BipinShukla/index.js"
                },
                {
                    "blank": 38,
                    "code": 244,
                    "comment": 16,
                    "filename": "action-paths/process.js"
                },
                {
                    "blank": 4,
                    "code": 31,
                    "comment": 4,
                    "filename": "action-paths/test.js"
                },
                {
                    "blank": 40,
                    "code": 105,
                    "comment": 21,
                    "filename": "app.js"
                },
                {
                    "blank": 2,
                    "code": 58,
                    "comment": 0,
                    "filename": "config/config.js"
                },
                {
                    "blank": 19,
                    "code": 197,
                    "comment": 21,
                    "filename": "controller/action-path-order_c.js"
                },
                {
                    "blank": 41,
                    "code": 282,
                    "comment": 43,
                    "filename": "controller/action_path_c.js"
                },
                {
                    "blank": 8,
                    "code": 53,
                    "comment": 9,
                    "filename": "controller/createzip.js"
                },
                {
                    "blank": 88,
                    "code": 394,
                    "comment": 21,
                    "filename": "controller/customer_c.js"
                },
                {
                    "blank": 4,
                    "code": 55,
                    "comment": 2,
                    "filename": "controller/dashboard_c.js"
                },
                {
                    "blank": 14,
                    "code": 49,
                    "comment": 4,
                    "filename": "controller/login_c.js"
                },
                {
                    "blank": 43,
                    "code": 152,
                    "comment": 6,
                    "filename": "controller/management_c.js"
                },
                {
                    "blank": 6,
                    "code": 25,
                    "comment": 0,
                    "filename": "controller/queue_c.js"
                },
                {
                    "blank": 71,
                    "code": 417,
                    "comment": 22,
                    "filename": "controller/rpa_c.js"
                },
                {
                    "blank": 41,
                    "code": 332,
                    "comment": 74,
                    "filename": "controller/task_c.js"
                },
                {
                    "blank": 12,
                    "code": 50,
                    "comment": 2,
                    "filename": "controller/uploadfile.js"
                },
                {
                    "blank": 0,
                    "code": 7,
                    "comment": 0,
                    "filename": "demofile/Customers.csv"
                },
                {
                    "blank": 0,
                    "code": 31,
                    "comment": 0,
                    "filename": "demofile/CustomerSavingsAccounts.csv"
                },
                {
                    "blank": 0,
                    "code": 8,
                    "comment": 0,
                    "filename": "demofile/MortgagesAccounts.csv"
                },
                {
                    "blank": 0,
                    "code": 22,
                    "comment": 0,
                    "filename": "demofile/Mortgagestrans.csv"
                },
                {
                    "blank": 0,
                    "code": 29,
                    "comment": 0,
                    "filename": "demofile/SavingsAccountTransactions.csv"
                },
                {
                    "blank": 0,
                    "code": 2,
                    "comment": 0,
                    "filename": "logs/debug.log"
                },
                {
                    "blank": 0,
                    "code": 0,
                    "comment": 0,
                    "filename": "logs/exceptions.log"
                },
              
                {
                    "blank": 2,
                    "code": 14,
                    "comment": 3,
                    "filename": "middleware/islogin.js"
                },
                {
                    "blank": 9,
                    "code": 55,
                    "comment": 0,
                    "filename": "middleware/permission.js"
                },
                {
                    "blank": 45,
                    "code": 0,
                    "comment": 136,
                    "filename": "migration/dbseeder.js"
                },
                {
                    "blank": 18,
                    "code": 94,
                    "comment": 3,
                    "filename": "migration/migration_db.js"
                },
                {
                    "blank": 0,
                    "code": 0,
                    "comment": 0,
                    "filename": "models/accesstoken_m.js"
                },
                {
                    "blank": 24,
                    "code": 178,
                    "comment": 14,
                    "filename": "models/action_path_m.js"
                },
                {
                    "blank": 6,
                    "code": 37,
                    "comment": 8,
                    "filename": "models/dashboard_m.js"
                },
                {
                    "blank": 7,
                    "code": 135,
                    "comment": 12,
                    "filename": "models/queue_m.js"
                },
                {
                    "blank": 38,
                    "code": 129,
                    "comment": 48,
                    "filename": "models/rpaagent_m.js"
                },
                {
                    "blank": 10,
                    "code": 24,
                    "comment": 8,
                    "filename": "models/user_m.js"
                },
                {
                    "blank": 0,
                    "code": 2041,
                    "comment": 0,
                    "filename": "package-lock.json"
                },
                {
                    "blank": 0,
                    "code": 36,
                    "comment": 0,
                    "filename": "package.json"
                },
                {
                    "blank": 1827,
                    "code": 13226,
                    "comment": 239,
                    "filename": "public/css/main.css"
                },
                {
                    "filename": "public/images/logo/favicon.ico",
                    "isbinaryfile": true,
                    "blank": 0,
                    "code": 0,
                    "comment": 0
                },
                {
                    "filename": "public/images/logo/logo-white.png",
                    "isbinaryfile": true,
                    "blank": 0,
                    "code": 0,
                    "comment": 0
                },
                {
                    "blank": 0,
                    "code": 1,
                    "comment": 5,
                    "filename": "public/js/bootstrap.min.js"
                },
                {
                    "blank": 0,
                    "code": 3,
                    "comment": 2,
                    "filename": "public/js/jquery-3.2.1.min.js"
                },
                {
                    "blank": 6,
                    "code": 17,
                    "comment": 4,
                    "filename": "public/js/main.js"
                },
                {
                    "blank": 0,
                    "code": 1,
                    "comment": 7,
                    "filename": "public/js/plugins/bootstrap-datepicker.min.js"
                },
                {
                    "blank": 0,
                    "code": 1,
                    "comment": 1,
                    "filename": "public/js/plugins/bootstrap-notify.min.js"
                },
                {
                    "blank": 521,
                    "code": 2559,
                    "comment": 376,
                    "filename": "public/js/plugins/chart.js"
                },
                {
                    "blank": 0,
                    "code": 4,
                    "comment": 4,
                    "filename": "public/js/plugins/dataTables.bootstrap.min.js"
                },
                {
                    "blank": 0,
                    "code": 1,
                    "comment": 5,
                    "filename": "public/js/plugins/fullcalendar.min.js"
                },
                {
                    "blank": 0,
                    "code": 4,
                    "comment": 12,
                    "filename": "public/js/plugins/jquery-ui.custom.min.js"
                },
                {
                    "blank": 0,
                    "code": 59,
                    "comment": 5,
                    "filename": "public/js/plugins/jquery.dataTables.min.js"
                },
                {
                    "blank": 1,
                    "code": 1,
                    "comment": 9,
                    "filename": "public/js/plugins/jquery.vmap.min.js"
                },
                {
                    "blank": 0,
                    "code": 1,
                    "comment": 0,
                    "filename": "public/js/plugins/jquery.vmap.sampledata.js"
                },
                {
                    "blank": 0,
                    "code": 1,
                    "comment": 1,
                    "filename": "public/js/plugins/jquery.vmap.world.js"
                },
                {
                    "blank": 0,
                    "code": 1,
                    "comment": 5,
                    "filename": "public/js/plugins/moment.min.js"
                },
                {
                    "blank": 0,
                    "code": 1,
                    "comment": 1,
                    "filename": "public/js/plugins/pace.min.js"
                },
                {
                    "blank": 0,
                    "code": 1,
                    "comment": 1,
                    "filename": "public/js/plugins/select2.min.js"
                },
                {
                    "blank": 0,
                    "code": 1,
                    "comment": 0,
                    "filename": "public/js/plugins/sweetalert.min.js"
                },
                {
                    "blank": 0,
                    "code": 1,
                    "comment": 4,
                    "filename": "public/js/popper.min.js"
                },
                {
                    "blank": 22,
                    "code": 189,
                    "comment": 15,
                    "filename": "resources/dashboard/action-path/actionpath.pug"
                },
                {
                    "blank": 21,
                    "code": 123,
                    "comment": 9,
                    "filename": "resources/dashboard/action-path/order.pug"
                },
                {
                    "blank": 19,
                    "code": 155,
                    "comment": 11,
                    "filename": "resources/dashboard/dashboard.pug"
                },
                {
                    "blank": 80,
                    "code": 271,
                    "comment": 60,
                    "filename": "resources/dashboard/RPA/rpa.pug"
                },
                {
                    "blank": 63,
                    "code": 184,
                    "comment": 14,
                    "filename": "resources/dashboard/RPA/updateRPA.pug"
                },
                {
                    "blank": 19,
                    "code": 75,
                    "comment": 1,
                    "filename": "resources/dashboard/user/permission.pug"
                },
                {
                    "blank": 50,
                    "code": 279,
                    "comment": 16,
                    "filename": "resources/dashboard/user/usermanagement.pug"
                },
                {
                    "blank": 4,
                    "code": 7,
                    "comment": 2,
                    "filename": "resources/includes/_head.pug"
                },
                {
                    "blank": 11,
                    "code": 74,
                    "comment": 16,
                    "filename": "resources/includes/_header.pug"
                },
                {
                    "blank": 2,
                    "code": 8,
                    "comment": 2,
                    "filename": "resources/includes/_javascript.pug"
                },
                {
                    "blank": 12,
                    "code": 31,
                    "comment": 97,
                    "filename": "resources/includes/_sidebar.pug"
                },
                {
                    "blank": 16,
                    "code": 37,
                    "comment": 8,
                    "filename": "resources/layouts/_layout.pug"
                },
                {
                    "blank": 2,
                    "code": 17,
                    "comment": 1,
                    "filename": "resources/layouts_old/main.pug"
                },
                {
                    "blank": 10,
                    "code": 46,
                    "comment": 9,
                    "filename": "resources/login/login.pug"
                },
                {
                    "blank": 3,
                    "code": 13,
                    "comment": 0,
                    "filename": "resources/notfound/404.pug"
                },
                {
                    "blank": 5,
                    "code": 22,
                    "comment": 0,
                    "filename": "resources/pug/blank-page.pug"
                },
                {
                    "blank": 10,
                    "code": 297,
                    "comment": 6,
                    "filename": "resources/pug/bootstrap-components.pug"
                },
                {
                    "blank": 18,
                    "code": 109,
                    "comment": 0,
                    "filename": "resources/pug/charts.pug"
                },
                {
                    "blank": 5,
                    "code": 37,
                    "comment": 0,
                    "filename": "resources/pug/form-components.pug"
                },
                {
                    "blank": 30,
                    "code": 138,
                    "comment": 2,
                    "filename": "resources/pug/form-custom.pug"
                },
                {
                    "blank": 7,
                    "code": 74,
                    "comment": 0,
                    "filename": "resources/pug/form-notifications.pug"
                },
                {
                    "blank": 25,
                    "code": 125,
                    "comment": 0,
                    "filename": "resources/pug/form-samples.pug"
                },
                {
                    "blank": 20,
                    "code": 133,
                    "comment": 0,
                    "filename": "resources/pug/index.pug"
                },
                {
                    "blank": 14,
                    "code": 67,
                    "comment": 9,
                    "filename": "resources/pug/page-calendar.pug"
                },
                {
                    "blank": 3,
                    "code": 13,
                    "comment": 0,
                    "filename": "resources/pug/page-error.pug"
                },
                {
                    "blank": 11,
                    "code": 106,
                    "comment": 0,
                    "filename": "resources/pug/page-invoice.pug"
                },
                {
                    "blank": 9,
                    "code": 26,
                    "comment": 0,
                    "filename": "resources/pug/page-lockscreen.pug"
                },
                {
                    "blank": 11,
                    "code": 53,
                    "comment": 1,
                    "filename": "resources/pug/page-login.pug"
                },
                {
                    "blank": 14,
                    "code": 205,
                    "comment": 0,
                    "filename": "resources/pug/page-mailbox.pug"
                },
                {
                    "blank": 26,
                    "code": 101,
                    "comment": 0,
                    "filename": "resources/pug/page-user.pug"
                },
                {
                    "blank": 13,
                    "code": 227,
                    "comment": 0,
                    "filename": "resources/pug/table-basic.pug"
                },
                {
                    "blank": 6,
                    "code": 438,
                    "comment": 1,
                    "filename": "resources/pug/table-data-table.pug"
                },
                {
                    "blank": 10,
                    "code": 67,
                    "comment": 0,
                    "filename": "resources/pug/ui-cards.pug"
                },
                {
                    "blank": 16,
                    "code": 100,
                    "comment": 0,
                    "filename": "resources/pug/widgets.pug"
                },
                {
                    "blank": 3,
                    "code": 13,
                    "comment": 0,
                    "filename": "resources/unauthorized/unauthorized.pug"
                },
                {
                    "blank": 12,
                    "code": 17,
                    "comment": 0,
                    "filename": "route/action-path-order_r.js"
                },
                {
                    "blank": 12,
                    "code": 17,
                    "comment": 0,
                    "filename": "route/action_path_r.js"
                },
                {
                    "blank": 7,
                    "code": 11,
                    "comment": 1,
                    "filename": "route/customer_r.js"
                },
                {
                    "blank": 9,
                    "code": 19,
                    "comment": 0,
                    "filename": "route/dashboard_r.js"
                },
                {
                    "blank": 7,
                    "code": 14,
                    "comment": 0,
                    "filename": "route/login_r.js"
                },
                {
                    "blank": 13,
                    "code": 29,
                    "comment": 18,
                    "filename": "route/management_r.js"
                },
                {
                    "blank": 8,
                    "code": 10,
                    "comment": 0,
                    "filename": "route/queue_r.js"
                },
                {
                    "blank": 8,
                    "code": 28,
                    "comment": 0,
                    "filename": "route/rpa_r.js"
                },
                {
                    "blank": 6,
                    "code": 23,
                    "comment": 2,
                    "filename": "route/task_r.js"
                },
                {
                    "blank": 7,
                    "code": 97,
                    "comment": 14,
                    "filename": "services/dbhelper/sqlhelper.js"
                },
                {
                    "blank": 1,
                    "code": 26,
                    "comment": 3,
                    "filename": "services/logger/log.js"
                },
                {
                    "blank": 16,
                    "code": 136,
                    "comment": 40,
                    "filename": "services/oauth-rpa/httprequest.js"
                },
                {
                    "blank": 4,
                    "code": 170,
                    "comment": 34,
                    "filename": "services/oauth-rpa/oauthRPA.js"
                },
                {
                    "blank": 4,
                    "code": 177,
                    "comment": 32,
                    "filename": "services/oauth2/examples/index.js"
                },
                {
                    "blank": 285,
                    "code": 1777,
                    "comment": 160,
                    "filename": "services/oauth2/index.js"
                },
                {
                    "blank": 45,
                    "code": 133,
                    "comment": 3,
                    "filename": "services/oauth2/migration/dbseeder.js"
                },
                {
                    "blank": 27,
                    "code": 131,
                    "comment": 5,
                    "filename": "services/oauth2/migration/migration_db.js"
                },
                {
                    "blank": 3,
                    "code": 54,
                    "comment": 3,
                    "filename": "services/oauth2/oauth-config/config.js"
                },
                {
                    "blank": 2,
                    "code": 52,
                    "comment": 9,
                    "filename": "services/oauth2/sqlhelper/sqlhelper.js"
                },
                {
                    "blank": 9,
                    "code": 124,
                    "comment": 0,
                    "filename": "services/oauth2/swagger.json"
                },
                {
                    "blank": 7,
                    "code": 69,
                    "comment": 13,
                    "filename": "services/oauth2/test.js"
                },
                {
                    "blank": 10,
                    "code": 21,
                    "comment": 17,
                    "filename": "services/utils/test.js"
                },
                {
                    "blank": 3,
                    "code": 15,
                    "comment": 2,
                    "filename": "services/utils/utils.js"
                },
                {
                    "blank": 0,
                    "code": 2,
                    "comment": 0,
                    "filename": "test.js"
                }
            ]
        },
        {
            "version": "0.1.7",
            "counttime": "2019-02-13 11:04:32",
            "filesum": 121,
            "codesum": 28287,
            "commentsum": 1794,
            "blanksum": 4047,
            "filelist": [
                {
                    "blank": 0,
                    "code": 4,
                    "comment": 0,
                    "filename": ".gitignore"
                },
                {
                    "filename": "action-paths/bipin.zip",
                    "isbinaryfile": true,
                    "blank": 0,
                    "code": 0,
                    "comment": 0
                },
                {
                    "filename": "action-paths/bipin/explorer.PNG",
                    "isbinaryfile": true,
                    "blank": 0,
                    "code": 0,
                    "comment": 0
                },
                {
                    "blank": 3,
                    "code": 41,
                    "comment": 0,
                    "filename": "action-paths/bipin/index.js"
                },
                {
                    "filename": "action-paths/BipinShukla/explorer.PNG",
                    "isbinaryfile": true,
                    "blank": 0,
                    "code": 0,
                    "comment": 0
                },
                {
                    "blank": 3,
                    "code": 41,
                    "comment": 0,
                    "filename": "action-paths/BipinShukla/index.js"
                },
                {
                    "blank": 38,
                    "code": 244,
                    "comment": 16,
                    "filename": "action-paths/process.js"
                },
                {
                    "blank": 4,
                    "code": 31,
                    "comment": 4,
                    "filename": "action-paths/test.js"
                },
                {
                    "blank": 40,
                    "code": 105,
                    "comment": 21,
                    "filename": "app.js"
                },
                {
                    "blank": 2,
                    "code": 58,
                    "comment": 0,
                    "filename": "config/config.js"
                },
                {
                    "blank": 19,
                    "code": 197,
                    "comment": 21,
                    "filename": "controller/action-path-order_c.js"
                },
                {
                    "blank": 41,
                    "code": 282,
                    "comment": 43,
                    "filename": "controller/action_path_c.js"
                },
                {
                    "blank": 8,
                    "code": 53,
                    "comment": 9,
                    "filename": "controller/createzip.js"
                },
                {
                    "blank": 88,
                    "code": 394,
                    "comment": 21,
                    "filename": "controller/customer_c.js"
                },
                {
                    "blank": 4,
                    "code": 55,
                    "comment": 2,
                    "filename": "controller/dashboard_c.js"
                },
                {
                    "blank": 14,
                    "code": 49,
                    "comment": 4,
                    "filename": "controller/login_c.js"
                },
                {
                    "blank": 43,
                    "code": 152,
                    "comment": 6,
                    "filename": "controller/management_c.js"
                },
                {
                    "blank": 6,
                    "code": 25,
                    "comment": 0,
                    "filename": "controller/queue_c.js"
                },
                {
                    "blank": 71,
                    "code": 417,
                    "comment": 22,
                    "filename": "controller/rpa_c.js"
                },
                {
                    "blank": 41,
                    "code": 332,
                    "comment": 74,
                    "filename": "controller/task_c.js"
                },
                {
                    "blank": 12,
                    "code": 50,
                    "comment": 2,
                    "filename": "controller/uploadfile.js"
                },
                {
                    "blank": 0,
                    "code": 7,
                    "comment": 0,
                    "filename": "demofile/Customers.csv"
                },
                {
                    "blank": 0,
                    "code": 31,
                    "comment": 0,
                    "filename": "demofile/CustomerSavingsAccounts.csv"
                },
                {
                    "blank": 0,
                    "code": 8,
                    "comment": 0,
                    "filename": "demofile/MortgagesAccounts.csv"
                },
                {
                    "blank": 0,
                    "code": 22,
                    "comment": 0,
                    "filename": "demofile/Mortgagestrans.csv"
                },
                {
                    "blank": 0,
                    "code": 29,
                    "comment": 0,
                    "filename": "demofile/SavingsAccountTransactions.csv"
                },
                {
                    "blank": 0,
                    "code": 2,
                    "comment": 0,
                    "filename": "logs/debug.log"
                },
                {
                    "blank": 0,
                    "code": 0,
                    "comment": 0,
                    "filename": "logs/exceptions.log"
                },
              
                {
                    "blank": 2,
                    "code": 14,
                    "comment": 3,
                    "filename": "middleware/islogin.js"
                },
                {
                    "blank": 9,
                    "code": 55,
                    "comment": 0,
                    "filename": "middleware/permission.js"
                },
                {
                    "blank": 45,
                    "code": 0,
                    "comment": 136,
                    "filename": "migration/dbseeder.js"
                },
                {
                    "blank": 18,
                    "code": 94,
                    "comment": 3,
                    "filename": "migration/migration_db.js"
                },
                {
                    "blank": 0,
                    "code": 0,
                    "comment": 0,
                    "filename": "models/accesstoken_m.js"
                },
                {
                    "blank": 24,
                    "code": 178,
                    "comment": 14,
                    "filename": "models/action_path_m.js"
                },
                {
                    "blank": 6,
                    "code": 37,
                    "comment": 8,
                    "filename": "models/dashboard_m.js"
                },
                {
                    "blank": 7,
                    "code": 135,
                    "comment": 12,
                    "filename": "models/queue_m.js"
                },
                {
                    "blank": 38,
                    "code": 129,
                    "comment": 48,
                    "filename": "models/rpaagent_m.js"
                },
                {
                    "blank": 10,
                    "code": 24,
                    "comment": 8,
                    "filename": "models/user_m.js"
                },
                {
                    "blank": 0,
                    "code": 2041,
                    "comment": 0,
                    "filename": "package-lock.json"
                },
                {
                    "blank": 0,
                    "code": 36,
                    "comment": 0,
                    "filename": "package.json"
                },
                {
                    "blank": 1827,
                    "code": 13226,
                    "comment": 239,
                    "filename": "public/css/main.css"
                },
                {
                    "filename": "public/images/logo/favicon.ico",
                    "isbinaryfile": true,
                    "blank": 0,
                    "code": 0,
                    "comment": 0
                },
                {
                    "filename": "public/images/logo/logo-white.png",
                    "isbinaryfile": true,
                    "blank": 0,
                    "code": 0,
                    "comment": 0
                },
                {
                    "blank": 0,
                    "code": 1,
                    "comment": 5,
                    "filename": "public/js/bootstrap.min.js"
                },
                {
                    "blank": 0,
                    "code": 3,
                    "comment": 2,
                    "filename": "public/js/jquery-3.2.1.min.js"
                },
                {
                    "blank": 6,
                    "code": 17,
                    "comment": 4,
                    "filename": "public/js/main.js"
                },
                {
                    "blank": 0,
                    "code": 1,
                    "comment": 7,
                    "filename": "public/js/plugins/bootstrap-datepicker.min.js"
                },
                {
                    "blank": 0,
                    "code": 1,
                    "comment": 1,
                    "filename": "public/js/plugins/bootstrap-notify.min.js"
                },
                {
                    "blank": 521,
                    "code": 2559,
                    "comment": 376,
                    "filename": "public/js/plugins/chart.js"
                },
                {
                    "blank": 0,
                    "code": 4,
                    "comment": 4,
                    "filename": "public/js/plugins/dataTables.bootstrap.min.js"
                },
                {
                    "blank": 0,
                    "code": 1,
                    "comment": 5,
                    "filename": "public/js/plugins/fullcalendar.min.js"
                },
                {
                    "blank": 0,
                    "code": 4,
                    "comment": 12,
                    "filename": "public/js/plugins/jquery-ui.custom.min.js"
                },
                {
                    "blank": 0,
                    "code": 59,
                    "comment": 5,
                    "filename": "public/js/plugins/jquery.dataTables.min.js"
                },
                {
                    "blank": 1,
                    "code": 1,
                    "comment": 9,
                    "filename": "public/js/plugins/jquery.vmap.min.js"
                },
                {
                    "blank": 0,
                    "code": 1,
                    "comment": 0,
                    "filename": "public/js/plugins/jquery.vmap.sampledata.js"
                },
                {
                    "blank": 0,
                    "code": 1,
                    "comment": 1,
                    "filename": "public/js/plugins/jquery.vmap.world.js"
                },
                {
                    "blank": 0,
                    "code": 1,
                    "comment": 5,
                    "filename": "public/js/plugins/moment.min.js"
                },
                {
                    "blank": 0,
                    "code": 1,
                    "comment": 1,
                    "filename": "public/js/plugins/pace.min.js"
                },
                {
                    "blank": 0,
                    "code": 1,
                    "comment": 1,
                    "filename": "public/js/plugins/select2.min.js"
                },
                {
                    "blank": 0,
                    "code": 1,
                    "comment": 0,
                    "filename": "public/js/plugins/sweetalert.min.js"
                },
                {
                    "blank": 0,
                    "code": 1,
                    "comment": 4,
                    "filename": "public/js/popper.min.js"
                },
                {
                    "blank": 22,
                    "code": 189,
                    "comment": 15,
                    "filename": "resources/dashboard/action-path/actionpath.pug"
                },
                {
                    "blank": 21,
                    "code": 123,
                    "comment": 9,
                    "filename": "resources/dashboard/action-path/order.pug"
                },
                {
                    "blank": 19,
                    "code": 155,
                    "comment": 11,
                    "filename": "resources/dashboard/dashboard.pug"
                },
                {
                    "blank": 80,
                    "code": 271,
                    "comment": 60,
                    "filename": "resources/dashboard/RPA/rpa.pug"
                },
                {
                    "blank": 63,
                    "code": 184,
                    "comment": 14,
                    "filename": "resources/dashboard/RPA/updateRPA.pug"
                },
                {
                    "blank": 19,
                    "code": 75,
                    "comment": 1,
                    "filename": "resources/dashboard/user/permission.pug"
                },
                {
                    "blank": 50,
                    "code": 279,
                    "comment": 16,
                    "filename": "resources/dashboard/user/usermanagement.pug"
                },
                {
                    "blank": 4,
                    "code": 7,
                    "comment": 2,
                    "filename": "resources/includes/_head.pug"
                },
                {
                    "blank": 11,
                    "code": 74,
                    "comment": 16,
                    "filename": "resources/includes/_header.pug"
                },
                {
                    "blank": 2,
                    "code": 8,
                    "comment": 2,
                    "filename": "resources/includes/_javascript.pug"
                },
                {
                    "blank": 12,
                    "code": 31,
                    "comment": 97,
                    "filename": "resources/includes/_sidebar.pug"
                },
                {
                    "blank": 16,
                    "code": 37,
                    "comment": 8,
                    "filename": "resources/layouts/_layout.pug"
                },
                {
                    "blank": 2,
                    "code": 17,
                    "comment": 1,
                    "filename": "resources/layouts_old/main.pug"
                },
                {
                    "blank": 10,
                    "code": 46,
                    "comment": 9,
                    "filename": "resources/login/login.pug"
                },
                {
                    "blank": 3,
                    "code": 13,
                    "comment": 0,
                    "filename": "resources/notfound/404.pug"
                },
                {
                    "blank": 5,
                    "code": 22,
                    "comment": 0,
                    "filename": "resources/pug/blank-page.pug"
                },
                {
                    "blank": 10,
                    "code": 297,
                    "comment": 6,
                    "filename": "resources/pug/bootstrap-components.pug"
                },
                {
                    "blank": 18,
                    "code": 109,
                    "comment": 0,
                    "filename": "resources/pug/charts.pug"
                },
                {
                    "blank": 5,
                    "code": 37,
                    "comment": 0,
                    "filename": "resources/pug/form-components.pug"
                },
                {
                    "blank": 30,
                    "code": 138,
                    "comment": 2,
                    "filename": "resources/pug/form-custom.pug"
                },
                {
                    "blank": 7,
                    "code": 74,
                    "comment": 0,
                    "filename": "resources/pug/form-notifications.pug"
                },
                {
                    "blank": 25,
                    "code": 125,
                    "comment": 0,
                    "filename": "resources/pug/form-samples.pug"
                },
                {
                    "blank": 20,
                    "code": 133,
                    "comment": 0,
                    "filename": "resources/pug/index.pug"
                },
                {
                    "blank": 14,
                    "code": 67,
                    "comment": 9,
                    "filename": "resources/pug/page-calendar.pug"
                },
                {
                    "blank": 3,
                    "code": 13,
                    "comment": 0,
                    "filename": "resources/pug/page-error.pug"
                },
                {
                    "blank": 11,
                    "code": 106,
                    "comment": 0,
                    "filename": "resources/pug/page-invoice.pug"
                },
                {
                    "blank": 9,
                    "code": 26,
                    "comment": 0,
                    "filename": "resources/pug/page-lockscreen.pug"
                },
                {
                    "blank": 11,
                    "code": 53,
                    "comment": 1,
                    "filename": "resources/pug/page-login.pug"
                },
                {
                    "blank": 14,
                    "code": 205,
                    "comment": 0,
                    "filename": "resources/pug/page-mailbox.pug"
                },
                {
                    "blank": 26,
                    "code": 101,
                    "comment": 0,
                    "filename": "resources/pug/page-user.pug"
                },
                {
                    "blank": 13,
                    "code": 227,
                    "comment": 0,
                    "filename": "resources/pug/table-basic.pug"
                },
                {
                    "blank": 6,
                    "code": 438,
                    "comment": 1,
                    "filename": "resources/pug/table-data-table.pug"
                },
                {
                    "blank": 10,
                    "code": 67,
                    "comment": 0,
                    "filename": "resources/pug/ui-cards.pug"
                },
                {
                    "blank": 16,
                    "code": 100,
                    "comment": 0,
                    "filename": "resources/pug/widgets.pug"
                },
                {
                    "blank": 3,
                    "code": 13,
                    "comment": 0,
                    "filename": "resources/unauthorized/unauthorized.pug"
                },
                {
                    "blank": 12,
                    "code": 17,
                    "comment": 0,
                    "filename": "route/action-path-order_r.js"
                },
                {
                    "blank": 12,
                    "code": 17,
                    "comment": 0,
                    "filename": "route/action_path_r.js"
                },
                {
                    "blank": 7,
                    "code": 11,
                    "comment": 1,
                    "filename": "route/customer_r.js"
                },
                {
                    "blank": 9,
                    "code": 19,
                    "comment": 0,
                    "filename": "route/dashboard_r.js"
                },
                {
                    "blank": 7,
                    "code": 14,
                    "comment": 0,
                    "filename": "route/login_r.js"
                },
                {
                    "blank": 13,
                    "code": 29,
                    "comment": 18,
                    "filename": "route/management_r.js"
                },
                {
                    "blank": 8,
                    "code": 10,
                    "comment": 0,
                    "filename": "route/queue_r.js"
                },
                {
                    "blank": 8,
                    "code": 28,
                    "comment": 0,
                    "filename": "route/rpa_r.js"
                },
                {
                    "blank": 6,
                    "code": 23,
                    "comment": 2,
                    "filename": "route/task_r.js"
                },
                {
                    "blank": 7,
                    "code": 97,
                    "comment": 14,
                    "filename": "services/dbhelper/sqlhelper.js"
                },
                {
                    "blank": 1,
                    "code": 26,
                    "comment": 3,
                    "filename": "services/logger/log.js"
                },
                {
                    "blank": 16,
                    "code": 136,
                    "comment": 40,
                    "filename": "services/oauth-rpa/httprequest.js"
                },
                {
                    "blank": 4,
                    "code": 170,
                    "comment": 34,
                    "filename": "services/oauth-rpa/oauthRPA.js"
                },
                {
                    "blank": 4,
                    "code": 177,
                    "comment": 32,
                    "filename": "services/oauth2/examples/index.js"
                },
                {
                    "blank": 285,
                    "code": 1777,
                    "comment": 160,
                    "filename": "services/oauth2/index.js"
                },
                {
                    "blank": 45,
                    "code": 133,
                    "comment": 3,
                    "filename": "services/oauth2/migration/dbseeder.js"
                },
                {
                    "blank": 27,
                    "code": 131,
                    "comment": 5,
                    "filename": "services/oauth2/migration/migration_db.js"
                },
                {
                    "blank": 3,
                    "code": 54,
                    "comment": 3,
                    "filename": "services/oauth2/oauth-config/config.js"
                },
                {
                    "blank": 2,
                    "code": 52,
                    "comment": 9,
                    "filename": "services/oauth2/sqlhelper/sqlhelper.js"
                },
                {
                    "blank": 9,
                    "code": 124,
                    "comment": 0,
                    "filename": "services/oauth2/swagger.json"
                },
                {
                    "blank": 7,
                    "code": 69,
                    "comment": 13,
                    "filename": "services/oauth2/test.js"
                },
                {
                    "blank": 10,
                    "code": 21,
                    "comment": 17,
                    "filename": "services/utils/test.js"
                },
                {
                    "blank": 3,
                    "code": 15,
                    "comment": 2,
                    "filename": "services/utils/utils.js"
                },
                {
                    "blank": 0,
                    "code": 2,
                    "comment": 0,
                    "filename": "test.js"
                }
            ]
        }
    ]
}