[
    {
        "subject": "Select Query About?",
        "to": "Jean@bs1.co.uk"
    },
    {
        "subject": "Customer Service",
        "to": "example@gmail.com"
    },
    {
        "subject": "New Product or Service",
        "to": "John@bs1.co.uk"
    },
    {
        "subject": "Membership",
        "to": "membership@bs1.co.uk"
    },
    {
        "subject": "Existing Product",
        "to": "Operations@bs1.co.uk"
    },
    {
        "subject": "Other",
        "to": "example@gmail.com"
    },
    {
        "subject": "Make a Complaint",
        "to": "example@gmail.com"
    },
    {
        "subject": "Mortgage Calculation/Redemption",
        "to": "example@gmail.com"
    }
]