[
    {
        "id": 1,
        "payee": "Oliver Smith",
        "amount": "1000.00",
        "chequeno": "20191",
        "reference": "Ref#1",
        "frontimage": "assets/cheque_images/barclays_1.jpg",
        "backimage": "assets/cheque_images/barclays_1.jpg",
        "deposit_date": "2016-05-08",
        "isactive": "1",
        "customerId": "bpu06esq"
    },
    {
        "id": 2,
        "payee": "James Pro",
        "amount": "1400.00",
        "chequeno": "20184",
        "reference": "Ref#2",
        "frontimage": "assets/cheque_images/natwest_1.jpg",
        "backimage": "assets/cheque_images/barclays_1.jpg",
        "deposit_date": "2016-05-04",
        "isactive": "0",
        "customerId": "bpu06esq"
    }
]