[
    {
      "id": "1",
      "title": "1.45% Member Rewards Bond",
      "body": "Qualifying members can benefit from our exclusive fixed rate Member Rewards Bond Issue 3. If you put your money away until 30 June 2020 and resist the urge to dip into it we'll pay you a fixed** rate of interest at 1.45% gross p.a./AER*",
      "image": "./assets/member_images/mr-bond.jpg",
      "bullets": [
        "Exclusive account for qualifying members",
        "Branch only savings offer",
        "Limited issue - may be withdrawn at any time",
        "A fixed** return on your investment",
        "£500 required to open an account"
      ],
      "actions": [
        {
          "title": "Find out more about the account",
          "type": "url",
          "action": "https://www.thenottingham.com/savings/products/member-rewards-bond-issue-3/"
        }
      ],
      "css": "background-color: #deffee",
      "new": true
    },
    {
      "id": "2",
      "title": "Selling your home",
      "body": "As one of the largest regional estate agents in the East Midlands, with over 25 years’ experience and local knowledge, our dedicated advisers can make selling a home easier than ever. Save £500 off your estate agency fees.",
      "image": "./assets/member_images/EA-Members.jpg",
      "actions": [
        {
          "title": "Book a free valuation today",
          "type": "url",
          "action": "https://www.thenottingham.com/property/sell-property/free-valuation/"
        }
      ],
      "css": "background-color: #deffee",
      "new": true
    },
    {
      "id": "3",
      "title": "We search over 50 lenders!",
      "body": "Our expert advisers will find you the right mortgage deal through our unique mortgage finder service - where we search over 50 lenders. Our members don’t pay a fee for this service which is typically £249.",
      "image": "./assets/member_images/mortgage-advice.jpg",
      "bullets": [
        "Our advisers have a wealth of knowledge and experience so they can use their expertise the find the right mortgage for you",
        "We don’t just look at the headline rates, we look at all the mortgage features and hidden costs that can make your mortgage payments more costly in the long run",
        "Because our advisers know each lender's criteria they know the best way to mitigate any potential risks and supply answers that support the mortgage applications",
        "Not all mortgages are straightforward. If you're looking for a slightly different mortgage our advisers can work with niche lenders who specialise in helping with self-build mortgages or dealing with properties bought through auction."
      ],
      "actions": [
        {
          "title": "Find your mortgage",
          "type": "url",
          "action": "https://www.thenottingham.com/mortgages/new-customers/why-nms/"
        }
      ],
      "css": "background-color: #deffee",
      "new": true
    },
    {
      "id": "4",
      "title": "Financial planning",
      "body": "Face-to-face financial advice is becoming increasingly important at a time when it's becoming harder to find. As a member, our trusted partner, Wren Sterling, will offer you exclusive access to independent financial advice.",
      "image": "./assets/member_images/financial-planning.jpg",
      "bullets": [
        "Young",
        "Family life",
        "Pre-retirement",
        "Post retirement"
      ],
      "actions": [
        {
          "title": "Get access to financial planning",
          "type": "url",
          "action": "https://www.thenottingham.com/financial-planning/"
        }
      ],
      "css": "background-color: #deffee",
      "new": true
    },
    {
      "id": "5",
      "title": "Prepaid funeral plans",
      "body": "Funeral costs usually rest with close family members. A prepaid funeral plan, through our partner Dignity, will help to make a difficult time a bit easier for your loved ones. As a member you get £120 cashback on prepaid funeral plans.",
      "image": "./assets/member_images/funeral-planning.jpg",
      "actions": [
        {
          "title": "Organise your funeral plan",
          "type": "url",
          "action": "https://www.thenottingham.com/estate-planning/funeral-planning/"
        }
      ],
      "css": "background-color: #deffee",
      "new": true
    },
    {
      "id": "6",
      "title": "Money off lettings fees",
      "body": "We have years of experience in the lettings market and understand the pressures of being a landlord. Our professional approach ensures we safeguard your investment, as well as giving 20% off our standard fully managed fees.",
      "image": "./assets/member_images/WEB_TN_LandlordManagementFees.jpg",
      "actions": [
        {
          "title": "Find out more about our lettings service",
          "type": "url",
          "action": "https://www.thenottingham.com/property/landlords-and-tenants/"
        }
      ],
      "css": "background-color: #deffee",
      "new": true
    },
    {
      "id": "7",
      "title": "Flexible home insurance",
      "body": "We can arrange flexible, tailored home insurance policies through our insurance partner, RSA. You choose the level of cover that suits your needs and as a member you'll receive £25 cashback on any home or landlord insurance policy.",
      "image": "./assets/member_images/home-insurance.jpg",
      "bullets": [
        "Home insurance",
        "Landlord insurance",
        "Help and support"
      ],
      "actions": [
        {
          "title": "Find out more about this insurance",
          "type": "url",
          "action": "https://www.thenottingham.com/insurance/"
        }
      ],
      "css": "background-color: #deffee",
      "new": true
    }
  ]
  