customerId,firstName,lastName,dob,mobile,status
"apf1e187","Andree","Rossow",03/11/1990,"7747676284","BLOCKED"
"sd3cr4q7","Andree","Goodson",25/08/2000,"7751248229","NEW"
"yt01xlr2","Andree","Neville",18/12/1979,"7615523398","SETPIN"
"jwg1a383","Andree","Neville",06/02/1969,"7764802712","NEW"
"7xrqfnts","Andree","Fellman",20/11/1967,"7512107620","OTP"
"n42iu8i0","Andree","Gauntt",28/07/2005,"7488866349","SETPIN"
"tpwiwr28","Andree","Mendiola",27/01/2002,"7587072195","OTP"
"i6cpylrt","Andree","Fullilove",24/04/1979,"7690040157","NEW"